<svg width="50" height="50" viewBox="0 0 50 50" fill="none" xmlns="http://www.w3.org/2000/svg">
<g clip-path="url(#clip0)">
<path d="M32.596 41.9429L8.90666 36.4993C8.11819 36.3182 7.6259 35.5322 7.80705 34.7437L15.5295 1.13713C15.7107 0.348654 16.4967 -0.143631 17.2852 0.037521L40.9744 5.48108C41.7629 5.66223 42.2552 6.44826 42.074 7.23674L34.3516 40.8433C34.1705 41.6318 33.3845 42.124 32.596 41.9429Z" fill="#9DC6FB"/>
<path d="M40.9747 5.48115L39.7009 5.18848L32.2804 37.4812C32.0941 38.2918 31.2859 38.798 30.4752 38.6117L8.09973 33.47L7.80706 34.7439C7.62591 35.5321 8.11809 36.3181 8.90647 36.4992L32.5962 41.9429C33.3845 42.124 34.1704 41.6318 34.3516 40.8435L42.0742 7.23643C42.2552 6.44824 41.763 5.6623 40.9747 5.48115Z" fill="#80B4FB"/>
<path d="M33.042 44.7279H8.73535C7.92637 44.7279 7.27051 44.0721 7.27051 43.2631V8.78076C7.27051 7.97178 7.92637 7.31592 8.73535 7.31592H33.0421C33.8511 7.31592 34.5069 7.97178 34.5069 8.78076V43.2631C34.5068 44.0721 33.851 44.7279 33.042 44.7279Z" fill="#ECBE6B"/>
<path d="M33.0423 7.31592H31.7353V40.4502C31.7353 41.282 31.0609 41.9563 30.2291 41.9563H7.27051V43.2634C7.27051 44.0723 7.92627 44.7279 8.73506 44.7279H33.0423C33.8512 44.7279 34.5068 44.0722 34.5068 43.2634V8.78047C34.5068 7.97158 33.8512 7.31592 33.0423 7.31592Z" fill="#EAB14D"/>
<path d="M17.6093 15.8688H10.9669C10.551 15.8688 10.2139 15.5317 10.2139 15.1158C10.2139 14.6999 10.5511 14.3628 10.9669 14.3628H17.6093C18.0252 14.3628 18.3623 14.6999 18.3623 15.1158C18.3623 15.5317 18.0252 15.8688 17.6093 15.8688Z" fill="#E7A52E"/>
<path d="M17.6093 20.0153H10.9669C10.551 20.0153 10.2139 19.6782 10.2139 19.2623C10.2139 18.8464 10.5511 18.5093 10.9669 18.5093H17.6093C18.0252 18.5093 18.3623 18.8464 18.3623 19.2623C18.3623 19.6782 18.0252 20.0153 17.6093 20.0153Z" fill="#E7A52E"/>
<path d="M17.6093 24.1618H10.9669C10.551 24.1618 10.2139 23.8247 10.2139 23.4088C10.2139 22.9929 10.5511 22.6558 10.9669 22.6558H17.6093C18.0252 22.6558 18.3623 22.9929 18.3623 23.4088C18.3623 23.8247 18.0252 24.1618 17.6093 24.1618Z" fill="#E7A52E"/>
<path d="M17.6093 28.3083H10.9669C10.551 28.3083 10.2139 27.9712 10.2139 27.5553C10.2139 27.1394 10.5511 26.8022 10.9669 26.8022H17.6093C18.0252 26.8022 18.3623 27.1394 18.3623 27.5553C18.3623 27.9712 18.0252 28.3083 17.6093 28.3083Z" fill="#E7A52E"/>
<path d="M17.6093 32.4548H10.9669C10.551 32.4548 10.2139 32.1177 10.2139 31.7018C10.2139 31.2858 10.5511 30.9487 10.9669 30.9487H17.6093C18.0252 30.9487 18.3623 31.2858 18.3623 31.7018C18.3623 32.1177 18.0252 32.4548 17.6093 32.4548Z" fill="#E7A52E"/>
<path d="M17.6093 36.6018H10.9669C10.551 36.6018 10.2139 36.2646 10.2139 35.8487C10.2139 35.4328 10.5511 35.0957 10.9669 35.0957H17.6093C18.0252 35.0957 18.3623 35.4328 18.3623 35.8487C18.3623 36.2646 18.0252 36.6018 17.6093 36.6018Z" fill="#E7A52E"/>
<path d="M32.8353 12.5879H16.9996C16.1677 12.5879 15.4932 13.2623 15.4932 14.0943V48.4936C15.4932 49.3255 16.1676 50 16.9996 50H41.2231C42.0551 50 42.7296 49.3256 42.7296 48.4936V22.4821C42.7296 21.9494 42.518 21.4386 42.1413 21.0618L34.2556 13.1762C33.8789 12.7995 33.368 12.5879 32.8353 12.5879Z" fill="#F9F6F9"/>
<path d="M42.1413 21.062L39.4367 18.3574C39.8134 18.7341 40.0249 19.2449 40.0249 19.7776V45.789C40.0249 46.621 39.3505 47.2954 38.5185 47.2954H15.4932V48.4937C15.4932 49.3256 16.1676 50.0001 16.9996 50.0001H41.2231C42.0551 50.0001 42.7296 49.3257 42.7296 48.4937V22.4822C42.7296 21.9495 42.518 21.4387 42.1413 21.062Z" fill="#E7ECF6"/>
<path d="M42.1413 21.062L34.2556 13.1764C33.9782 12.899 33.6279 12.7121 33.25 12.6323V21.0633C33.25 21.618 33.6996 22.0676 34.2543 22.0676H42.6854C42.6056 21.6895 42.4186 21.3393 42.1413 21.062Z" fill="#E7ECF6"/>
<path d="M42.1413 21.0619L40.3898 19.3105H33.25V21.0632C33.25 21.6178 33.6996 22.0675 34.2543 22.0675H42.6854C42.6056 21.6896 42.4186 21.3392 42.1413 21.0619Z" fill="#D8E2F1"/>
<path d="M37.5004 32.9784C37.9163 32.9784 38.2534 32.6413 38.2534 32.2254C38.2534 31.8095 37.9162 31.4724 37.5004 31.4724H22.5923V28.832H37.5004C37.9163 28.832 38.2534 28.4949 38.2534 28.079C38.2534 27.6631 37.9162 27.326 37.5004 27.326H22.5923V26.3229C22.5923 25.9069 22.2551 25.5698 21.8393 25.5698C21.4234 25.5698 21.0862 25.9069 21.0862 26.3229V27.326H18.8932C18.4772 27.326 18.1401 27.6631 18.1401 28.079C18.1401 28.4949 18.4773 28.832 18.8932 28.832H21.0862V31.4724H18.8932C18.4772 31.4724 18.1401 31.8095 18.1401 32.2254C18.1401 32.6413 18.4773 32.9784 18.8932 32.9784H21.0862V35.6188H18.8932C18.4772 35.6188 18.1401 35.956 18.1401 36.3719C18.1401 36.7878 18.4773 37.1249 18.8932 37.1249H21.0862V39.7652H18.8932C18.4772 39.7652 18.1401 40.1023 18.1401 40.5183C18.1401 40.9342 18.4773 41.2714 18.8932 41.2714H21.0862V42.273C21.0862 42.6891 21.4234 43.0262 21.8393 43.0262C22.2551 43.0262 22.5923 42.6891 22.5923 42.273V41.2714H37.5004C37.9163 41.2714 38.2534 40.9343 38.2534 40.5183C38.2534 40.1023 37.9162 39.7652 37.5004 39.7652H22.5923V37.1249H37.5004C37.9163 37.1249 38.2534 36.7878 38.2534 36.3719C38.2534 35.956 37.9162 35.6188 37.5004 35.6188H22.5923V32.9784H37.5004Z" fill="#D8E2F1"/>
</g>
<defs>
<clipPath id="clip0">
<rect width="50" height="50" fill="white"/>
</clipPath>
</defs>
</svg>
